{
  "Statement": [
    {
      "Sid": "CreateFunctionPermissions",
      "Effect": "Allow",
      "Action": ["lambda:*"],
      "Resource": "*"
    }
  ],
  "stages": {
    "dev": {
      "api_gateway_stage": "api"
    }
  },
  "version": "2.0",
  "app_name": "chalice_md5"
}
